error[E0277]: the trait bound `Const: CanSplitInto<Mut, Const>` is not satisfied
  --> $DIR/autobad-split-const-mut-const.rs:16:45
   |
16 |               &mut partial!(X const a)) = i.into();
   |                                             ^^^^ the trait `CanSplitInto<Mut, Const>` is not implemented for `Const`
   |
   = help: the following other types implement trait `CanSplitInto<R, S>`:
             <Const as CanSplitInto<Const, Const>>
             <Const as CanSplitInto<Const, No>>
             <Const as CanSplitInto<No, Const>>
             <Const as CanSplitInto<No, No>>
note: required because of the requirements on the impl of `From<&mut X__Partial<Const>>` for `(&mut X__Partial<Mut>, &mut X__Partial<Const>)`
  --> $DIR/autobad-split-const-mut-const.rs:9:10
   |
9  | #[derive(PartialBorrow,Default)]
   |          ^^^^^^^^^^^^^
   = note: required because of the requirements on the impl of `Into<(&mut X__Partial<Mut>, &mut X__Partial<Const>)>` for `&mut X__Partial<Const>`
   = note: this error originates in the derive macro `PartialBorrow` (in Nightly builds, run with -Z macro-backtrace for more info)
